{
  "url": "https://github.com/aligrudi/fbpdf",
  "rev": "1c1ed80097f2bb86ceab59699806fff2aa17d03f",
  "date": "2019-05-10T09:42:16+04:30",
  "sha256": "0wmp7bqkzxaag5hd1rksyv9fkjs69q4jjx250i51ypp9qxja8pxw",
  "fetchSubmodules": false
}
